<svg width="80" height="80" viewBox="0 0 80 80" fill="none" xmlns="http://www.w3.org/2000/svg">
<path fill-rule="evenodd" clip-rule="evenodd" d="M26.6667 36.6667C34.0304 36.6667 40 30.6971 40 23.3333C40 15.9695 34.0304 10 26.6667 10C19.3029 10 13.3334 15.9695 13.3334 23.3333C13.3334 30.6971 19.3029 36.6667 26.6667 36.6667ZM26.6667 30C30.3486 30 33.3334 27.0152 33.3334 23.3333C33.3334 19.6514 30.3486 16.6667 26.6667 16.6667C22.9848 16.6667 20 19.6514 20 23.3333C20 27.0152 22.9848 30 26.6667 30Z" fill="#00FFC5"/>
<path d="M36.6666 46.6667C38.5076 46.6667 40 48.159 40 50V70H46.6666V50C46.6666 44.477 42.1896 40 36.6666 40H16.6666C11.1438 40 6.66663 44.477 6.66663 50V70H13.3333V50C13.3333 48.159 14.8257 46.6667 16.6666 46.6667H36.6666Z" fill="#00FFC5"/>
<path d="M60 23.3334H66.6667V30H73.3334V36.6667H66.6667V43.3334H60V36.6667H53.3334V30H60V23.3334Z" fill="#00FFC5"/>
</svg>
